<?xml version="1.1" standalone="no"?>
<!DOCTYPE svg PUBLIC "-//W3C//DTD SVG 20010904//EN"
 "http://www.w3.org/TR/2001/REC-SVG-20010904/DTD/svg10.dtd">
<svg viewBox="0 0 32 32" version="1.1"
     xmlns="http://www.w3.org/2000/svg" stroke-linecap="round"
     width="640pt" height="640pt" preserveAspectRatio="xMidYMid meet">
    <clipPath id="BacnBox">
        <rect x="6" y="4.5" width="8" height="23" />
    </clipPath>
    <g style="fill-opacity: 0;" stroke="#7D5256" stroke-width="2">
        <!--
        <rect x="4" y="4" width="24" height="24" stroke-width="0" style="fill-opacity: 1;"/>
        <rect x="6" y="4.5" width="20" height="23" stroke-width="0" style="fill:blue;fill-opacity: 1;"/>
        <circle cx="16" cy="16" r="15.5" stroke-width="0" style="fill:red;fill-opacity: 1;"/>
        -->
        <path d="M12 5.5l5 0c8 0,8 10,0 10l-4 0m5 0c9 0,9 11,0 11l-5 0" />
        <path d="M9 4.5c2 5,2 7,1 11s-1 7,1 12" stroke="#F88" clip-path="url(#BacnBox)" />
        <path d="M7 4.5c2 5,2 7,1 11s-1 7,1 12m2 -23c2 5,2 7,1 11s-1 7,1 12" clip-path="url(#BacnBox)" />
        <!--path stroke="red" d="M11 26l0 0M22.8 20l0 0" /-->
    </g>
</svg>
